HW 1: ESM 262
…
ℹ Use `spec()` to retrieve the full column specification for this data.
ℹ Specify the column types or set `show_col_types = FALSE` to quiet this message.

stream_snowpack <- p301 |>
  select("snowpack", "streamflow", "year")

year_avg <- stream_snowpack |>
  group_by(year) |>
  summarise(max_streamflow = max(streamflow,
                                 na.rm = TRUE),
            max_snowpack = max(snowpack, na.rm = TRUE))
year_avg

# A tibble: 46 × 3
    year max_streamflow max_snowpack
   <dbl>          <dbl>        <dbl>
 1  1955        0             0.0609
 2  1956        0.00982       0.128 
 3  1957        0.0494        0.743 
 4  1958        0.0170        0.364 
 5  1959        0.0165        0.383 
 6  1960        0.00104       0.191 
 7  1961        0.0822        0.512 
 8  1962        0.0365        0.168 
 9  1963        0.00153       0.255 
10  1964        0.00534       0.479 
# ℹ 36 more rows
…
